"filename", "language", "JavaScript", "Groovy", "Batch", "Java Properties", "JSON", "Objective-C", "Java", "XML", "C++", "Diff", "comment", "blank", "total"
"/Users/assafscialom/Documents/justYouPartner.nosync/justyoupartner/.eslintrc.js", "JavaScript", 4, 0, 0, 0, 0, 0, 0, 0, 0, 0, 0, 1, 5
"/Users/assafscialom/Documents/justYouPartner.nosync/justyoupartner/.prettierrc.js", "JavaScript", 6, 0, 0, 0, 0, 0, 0, 0, 0, 0, 0, 1, 7
"/Users/assafscialom/Documents/justYouPartner.nosync/justyoupartner/.watchmanconfig", "JSON", 0, 0, 0, 0, 1, 0, 0, 0, 0, 0, 0, 0, 1
"/Users/assafscialom/Documents/justYouPartner.nosync/justyoupartner/App.js", "JavaScript", 105, 0, 0, 0, 0, 0, 0, 0, 0, 0, 2, 13, 120
"/Users/assafscialom/Documents/justYouPartner.nosync/justyoupartner/__tests__/App-test.js", "JavaScript", 7, 0, 0, 0, 0, 0, 0, 0, 0, 0, 4, 4, 15
"/Users/assafscialom/Documents/justYouPartner.nosync/justyoupartner/android/app/build.gradle", "Groovy", 0, 105, 0, 0, 0, 0, 0, 0, 0, 0, 111, 25, 241
"/Users/assafscialom/Documents/justYouPartner.nosync/justyoupartner/android/app/google-services.json", "JSON", 0, 0, 0, 0, 82, 0, 0, 0, 0, 0, 0, 0, 82
"/Users/assafscialom/Documents/justYouPartner.nosync/justyoupartner/android/app/src/debug/AndroidManifest.xml", "XML", 0, 0, 0, 0, 0, 0, 0, 6, 0, 0, 0, 3, 9
"/Users/assafscialom/Documents/justYouPartner.nosync/justyoupartner/android/app/src/debug/java/com/justyoutrainer/ReactNativeFlipper.java", "Java", 0, 0, 0, 0, 0, 0, 59, 0, 0, 0, 8, 6, 73
"/Users/assafscialom/Documents/justYouPartner.nosync/justyoupartner/android/app/src/main/AndroidManifest.xml", "XML", 0, 0, 0, 0, 0, 0, 0, 78, 0, 0, 1, 6, 85
"/Users/assafscialom/Documents/justYouPartner.nosync/justyoupartner/android/app/src/main/java/com/justyoutrainer/MainActivity.java", "Java", 0, 0, 0, 0, 0, 0, 8, 0, 0, 0, 4, 4, 16
"/Users/assafscialom/Documents/justYouPartner.nosync/justyoupartner/android/app/src/main/java/com/justyoutrainer/MainApplication.java", "Java", 0, 0, 0, 0, 0, 0, 62, 0, 0, 0, 13, 11, 86
"/Users/assafscialom/Documents/justYouPartner.nosync/justyoupartner/android/app/src/main/res/raw/app.json", "JSON", 0, 0, 0, 0, 4, 0, 0, 0, 0, 0, 0, 0, 4
"/Users/assafscialom/Documents/justYouPartner.nosync/justyoupartner/android/app/src/main/res/raw/node_modules_cssselect_lib_procedure.json", "JSON", 0, 0, 0, 0, 11, 0, 0, 0, 0, 0, 0, 1, 12
"/Users/assafscialom/Documents/justYouPartner.nosync/justyoupartner/android/app/src/main/res/raw/node_modules_csstree_data_patch.json", "JSON", 0, 0, 0, 0, 717, 0, 0, 0, 0, 0, 0, 1, 718
"/Users/assafscialom/Documents/justYouPartner.nosync/justyoupartner/android/app/src/main/res/raw/node_modules_csstree_package.json", "JSON", 0, 0, 0, 0, 60, 0, 0, 0, 0, 0, 0, 1, 61
"/Users/assafscialom/Documents/justYouPartner.nosync/justyoupartner/android/app/src/main/res/raw/node_modules_domserializer_foreignnames.json", "JSON", 0, 0, 0, 0, 102, 0, 0, 0, 0, 0, 0, 1, 103
"/Users/assafscialom/Documents/justYouPartner.nosync/justyoupartner/android/app/src/main/res/raw/node_modules_entities_lib_maps_decode.json", "JSON", 0, 0, 0, 0, 1, 0, 0, 0, 0, 0, 0, 1, 2
"/Users/assafscialom/Documents/justYouPartner.nosync/justyoupartner/android/app/src/main/res/raw/node_modules_entities_lib_maps_entities.json", "JSON", 0, 0, 0, 0, 1, 0, 0, 0, 0, 0, 0, 1, 2
"/Users/assafscialom/Documents/justYouPartner.nosync/justyoupartner/android/app/src/main/res/raw/node_modules_entities_lib_maps_legacy.json", "JSON", 0, 0, 0, 0, 1, 0, 0, 0, 0, 0, 0, 1, 2
"/Users/assafscialom/Documents/justYouPartner.nosync/justyoupartner/android/app/src/main/res/raw/node_modules_entities_lib_maps_xml.json", "JSON", 0, 0, 0, 0, 1, 0, 0, 0, 0, 0, 0, 1, 2
"/Users/assafscialom/Documents/justYouPartner.nosync/justyoupartner/android/app/src/main/res/raw/node_modules_galioframework_src_config_galio.json", "JSON", 0, 0, 0, 0, 1, 0, 0, 0, 0, 0, 0, 0, 1
"/Users/assafscialom/Documents/justYouPartner.nosync/justyoupartner/android/app/src/main/res/raw/node_modules_mdndata_css_atrules.json", "JSON", 0, 0, 0, 0, 560, 0, 0, 0, 0, 0, 0, 1, 561
"/Users/assafscialom/Documents/justYouPartner.nosync/justyoupartner/android/app/src/main/res/raw/node_modules_mdndata_css_properties.json", "JSON", 0, 0, 0, 0, 9163, 0, 0, 0, 0, 0, 0, 1, 9164
"/Users/assafscialom/Documents/justYouPartner.nosync/justyoupartner/android/app/src/main/res/raw/node_modules_mdndata_css_syntaxes.json", "JSON", 0, 0, 0, 0, 761, 0, 0, 0, 0, 0, 0, 1, 762
"/Users/assafscialom/Documents/justYouPartner.nosync/justyoupartner/android/app/src/main/res/raw/node_modules_reactnative_package.json", "JSON", 0, 0, 0, 0, 192, 0, 0, 0, 0, 0, 0, 0, 192
"/Users/assafscialom/Documents/justYouPartner.nosync/justyoupartner/android/app/src/main/res/raw/node_modules_reactnativevectoricons_glyphmaps_antdesign.json", "JSON", 0, 0, 0, 0, 300, 0, 0, 0, 0, 0, 0, 0, 300
"/Users/assafscialom/Documents/justYouPartner.nosync/justyoupartner/android/app/src/main/res/raw/node_modules_reactnativevectoricons_glyphmaps_entypo.json", "JSON", 0, 0, 0, 0, 413, 0, 0, 0, 0, 0, 0, 0, 413
"/Users/assafscialom/Documents/justYouPartner.nosync/justyoupartner/android/app/src/main/res/raw/node_modules_reactnativevectoricons_glyphmaps_evilicons.json", "JSON", 0, 0, 0, 0, 72, 0, 0, 0, 0, 0, 0, 0, 72
"/Users/assafscialom/Documents/justYouPartner.nosync/justyoupartner/android/app/src/main/res/raw/node_modules_reactnativevectoricons_glyphmaps_feather.json", "JSON", 0, 0, 0, 0, 288, 0, 0, 0, 0, 0, 0, 0, 288
"/Users/assafscialom/Documents/justYouPartner.nosync/justyoupartner/android/app/src/main/res/raw/node_modules_reactnativevectoricons_glyphmaps_fontawesome.json", "JSON", 0, 0, 0, 0, 788, 0, 0, 0, 0, 0, 0, 0, 788
"/Users/assafscialom/Documents/justYouPartner.nosync/justyoupartner/android/app/src/main/res/raw/node_modules_reactnativevectoricons_glyphmaps_fontawesome5free.json", "JSON", 0, 0, 0, 0, 1440, 0, 0, 0, 0, 0, 0, 0, 1440
"/Users/assafscialom/Documents/justYouPartner.nosync/justyoupartner/android/app/src/main/res/raw/node_modules_reactnativevectoricons_glyphmaps_fontawesome5free_meta.json", "JSON", 0, 0, 0, 0, 1599, 0, 0, 0, 0, 0, 0, 1, 1600
"/Users/assafscialom/Documents/justYouPartner.nosync/justyoupartner/android/app/src/main/res/raw/node_modules_reactnativevectoricons_glyphmaps_foundation.json", "JSON", 0, 0, 0, 0, 285, 0, 0, 0, 0, 0, 0, 0, 285
"/Users/assafscialom/Documents/justYouPartner.nosync/justyoupartner/android/app/src/main/res/raw/node_modules_reactnativevectoricons_glyphmaps_ionicons.json", "JSON", 0, 0, 0, 0, 3683, 0, 0, 0, 0, 0, 0, 1, 3684
"/Users/assafscialom/Documents/justYouPartner.nosync/justyoupartner/android/app/src/main/res/raw/node_modules_reactnativevectoricons_glyphmaps_materialcommunityicons.json", "JSON", 0, 0, 0, 0, 5348, 0, 0, 0, 0, 0, 0, 0, 5348
"/Users/assafscialom/Documents/justYouPartner.nosync/justyoupartner/android/app/src/main/res/raw/node_modules_reactnativevectoricons_glyphmaps_materialicons.json", "JSON", 0, 0, 0, 0, 1564, 0, 0, 0, 0, 0, 0, 0, 1564
"/Users/assafscialom/Documents/justYouPartner.nosync/justyoupartner/android/app/src/main/res/raw/node_modules_reactnativevectoricons_glyphmaps_octicons.json", "JSON", 0, 0, 0, 0, 186, 0, 0, 0, 0, 0, 0, 0, 186
"/Users/assafscialom/Documents/justYouPartner.nosync/justyoupartner/android/app/src/main/res/raw/node_modules_reactnativevectoricons_glyphmaps_simplelineicons.json", "JSON", 0, 0, 0, 0, 191, 0, 0, 0, 0, 0, 0, 0, 191
"/Users/assafscialom/Documents/justYouPartner.nosync/justyoupartner/android/app/src/main/res/raw/node_modules_reactnativevectoricons_glyphmaps_zocial.json", "JSON", 0, 0, 0, 0, 102, 0, 0, 0, 0, 0, 0, 0, 102
"/Users/assafscialom/Documents/justYouPartner.nosync/justyoupartner/android/app/src/main/res/values/colors.xml", "XML", 0, 0, 0, 0, 0, 0, 0, 3, 0, 0, 0, 0, 3
"/Users/assafscialom/Documents/justYouPartner.nosync/justyoupartner/android/app/src/main/res/values/strings.xml", "XML", 0, 0, 0, 0, 0, 0, 0, 3, 0, 0, 0, 1, 4
"/Users/assafscialom/Documents/justYouPartner.nosync/justyoupartner/android/app/src/main/res/values/styles.xml", "XML", 0, 0, 0, 0, 0, 0, 0, 5, 0, 0, 2, 3, 10
"/Users/assafscialom/Documents/justYouPartner.nosync/justyoupartner/android/build.gradle", "Groovy", 0, 32, 0, 0, 0, 0, 0, 0, 0, 0, 5, 5, 42
"/Users/assafscialom/Documents/justYouPartner.nosync/justyoupartner/android/gradle.properties", "Java Properties", 0, 0, 0, 4, 0, 0, 0, 0, 0, 0, 19, 9, 32
"/Users/assafscialom/Documents/justYouPartner.nosync/justyoupartner/android/gradle/wrapper/gradle-wrapper.properties", "Java Properties", 0, 0, 0, 5, 0, 0, 0, 0, 0, 0, 0, 1, 6
"/Users/assafscialom/Documents/justYouPartner.nosync/justyoupartner/android/gradlew.bat", "Batch", 0, 0, 76, 0, 0, 0, 0, 0, 0, 0, 0, 25, 101
"/Users/assafscialom/Documents/justYouPartner.nosync/justyoupartner/android/settings.gradle", "Groovy", 0, 5, 0, 0, 0, 0, 0, 0, 0, 0, 0, 0, 5
"/Users/assafscialom/Documents/justYouPartner.nosync/justyoupartner/app.json", "JSON", 0, 0, 0, 0, 4, 0, 0, 0, 0, 0, 0, 0, 4
"/Users/assafscialom/Documents/justYouPartner.nosync/justyoupartner/babel.config.js", "JavaScript", 3, 0, 0, 0, 0, 0, 0, 0, 0, 0, 0, 1, 4
"/Users/assafscialom/Documents/justYouPartner.nosync/justyoupartner/components/GetStarted.js", "JavaScript", 81, 0, 0, 0, 0, 0, 0, 0, 0, 0, 4, 3, 88
"/Users/assafscialom/Documents/justYouPartner.nosync/justyoupartner/components/SignUpAs.js", "JavaScript", 101, 0, 0, 0, 0, 0, 0, 0, 0, 0, 3, 7, 111
"/Users/assafscialom/Documents/justYouPartner.nosync/justyoupartner/components/WelcomePopUp.js", "JavaScript", 51, 0, 0, 0, 0, 0, 0, 0, 0, 0, 1, 7, 59
"/Users/assafscialom/Documents/justYouPartner.nosync/justyoupartner/components/globalComponents/AppButton.js", "JavaScript", 29, 0, 0, 0, 0, 0, 0, 0, 0, 0, 1, 3, 33
"/Users/assafscialom/Documents/justYouPartner.nosync/justyoupartner/components/globalComponents/ArrowBackButton.js", "JavaScript", 22, 0, 0, 0, 0, 0, 0, 0, 0, 0, 1, 3, 26
"/Users/assafscialom/Documents/justYouPartner.nosync/justyoupartner/components/globalComponents/BirthdayPicker.js", "JavaScript", 70, 0, 0, 0, 0, 0, 0, 0, 0, 0, 1, 4, 75
"/Users/assafscialom/Documents/justYouPartner.nosync/justyoupartner/components/globalComponents/Camera.js", "JavaScript", 85, 0, 0, 0, 0, 0, 0, 0, 0, 0, 2, 12, 99
"/Users/assafscialom/Documents/justYouPartner.nosync/justyoupartner/components/globalComponents/FlipToggleButton.js", "JavaScript", 24, 0, 0, 0, 0, 0, 0, 0, 0, 0, 1, 5, 30
"/Users/assafscialom/Documents/justYouPartner.nosync/justyoupartner/components/globalComponents/PickCategories.js", "JavaScript", 54, 0, 0, 0, 0, 0, 0, 0, 0, 0, 0, 5, 59
"/Users/assafscialom/Documents/justYouPartner.nosync/justyoupartner/components/globalComponents/PickCountry.js", "JavaScript", 82, 0, 0, 0, 0, 0, 0, 0, 0, 0, 0, 7, 89
"/Users/assafscialom/Documents/justYouPartner.nosync/justyoupartner/components/globalComponents/calendar/DayView.js", "JavaScript", 191, 0, 0, 0, 0, 0, 0, 0, 0, 0, 7, 17, 215
"/Users/assafscialom/Documents/justYouPartner.nosync/justyoupartner/components/globalComponents/calendar/EventCalendar.js", "JavaScript", 199, 0, 0, 0, 0, 0, 0, 0, 0, 0, 1, 22, 222
"/Users/assafscialom/Documents/justYouPartner.nosync/justyoupartner/components/globalComponents/calendar/Packer.js", "JavaScript", 91, 0, 0, 0, 0, 0, 0, 0, 0, 0, 1, 19, 111
"/Users/assafscialom/Documents/justYouPartner.nosync/justyoupartner/components/globalComponents/calendar/style.js", "JavaScript", 109, 0, 0, 0, 0, 0, 0, 0, 0, 0, 2, 3, 114
"/Users/assafscialom/Documents/justYouPartner.nosync/justyoupartner/components/place/placeRegister/AboutThePlace.js", "JavaScript", 107, 0, 0, 0, 0, 0, 0, 0, 0, 0, 4, 12, 123
"/Users/assafscialom/Documents/justYouPartner.nosync/justyoupartner/components/place/placeRegister/CreatePasswordPlace.js", "JavaScript", 163, 0, 0, 0, 0, 0, 0, 0, 0, 0, 4, 8, 175
"/Users/assafscialom/Documents/justYouPartner.nosync/justyoupartner/components/place/placeRegister/DetailsSuccessfullyPlace.js", "JavaScript", 28, 0, 0, 0, 0, 0, 0, 0, 0, 0, 2, 5, 35
"/Users/assafscialom/Documents/justYouPartner.nosync/justyoupartner/components/place/placeRegister/DonePopUpPlace.js", "JavaScript", 28, 0, 0, 0, 0, 0, 0, 0, 0, 0, 2, 5, 35
"/Users/assafscialom/Documents/justYouPartner.nosync/justyoupartner/components/place/placeRegister/EmailVerificationPlace.js", "JavaScript", 187, 0, 0, 0, 0, 0, 0, 0, 0, 0, 58, 12, 257
"/Users/assafscialom/Documents/justYouPartner.nosync/justyoupartner/components/place/placeRegister/ForgotPasswordPlace.js", "JavaScript", 177, 0, 0, 0, 0, 0, 0, 0, 0, 0, 6, 17, 200
"/Users/assafscialom/Documents/justYouPartner.nosync/justyoupartner/components/place/placeRegister/LogInPlace.js", "JavaScript", 167, 0, 0, 0, 0, 0, 0, 0, 0, 0, 8, 10, 185
"/Users/assafscialom/Documents/justYouPartner.nosync/justyoupartner/components/place/placeRegister/PaymentsAndPolicyPlace.js", "JavaScript", 262, 0, 0, 0, 0, 0, 0, 0, 0, 0, 10, 15, 287
"/Users/assafscialom/Documents/justYouPartner.nosync/justyoupartner/components/place/placeRegister/PhoneNumberVerificationPlace.js", "JavaScript", 290, 0, 0, 0, 0, 0, 0, 0, 0, 0, 66, 16, 372
"/Users/assafscialom/Documents/justYouPartner.nosync/justyoupartner/components/place/placeRegister/PickCategoryPlace.js", "JavaScript", 155, 0, 0, 0, 0, 0, 0, 0, 0, 0, 1, 10, 166
"/Users/assafscialom/Documents/justYouPartner.nosync/justyoupartner/components/place/placeRegister/ProfileDetailsPage1Place.js", "JavaScript", 246, 0, 0, 0, 0, 0, 0, 0, 0, 0, 9, 15, 270
"/Users/assafscialom/Documents/justYouPartner.nosync/justyoupartner/components/place/placeRegister/ProfileDetailsPage2Place.js", "JavaScript", 568, 0, 0, 0, 0, 0, 0, 0, 0, 0, 26, 27, 621
"/Users/assafscialom/Documents/justYouPartner.nosync/justyoupartner/components/place/placeRegister/RegisteringAccountPopUpPlace.js", "JavaScript", 23, 0, 0, 0, 0, 0, 0, 0, 0, 0, 2, 5, 30
"/Users/assafscialom/Documents/justYouPartner.nosync/justyoupartner/components/place/placeRegister/ResetPasswordPlace.js", "JavaScript", 144, 0, 0, 0, 0, 0, 0, 0, 0, 0, 4, 11, 159
"/Users/assafscialom/Documents/justYouPartner.nosync/justyoupartner/components/place/placeRegister/SignUpPlace.js", "JavaScript", 195, 0, 0, 0, 0, 0, 0, 0, 0, 0, 30, 11, 236
"/Users/assafscialom/Documents/justYouPartner.nosync/justyoupartner/components/place/placeRegister/WelcomePlace.js", "JavaScript", 40, 0, 0, 0, 0, 0, 0, 0, 0, 0, 1, 5, 46
"/Users/assafscialom/Documents/justYouPartner.nosync/justyoupartner/components/trainer/trainerPage/TrainerContainer.js", "JavaScript", 123, 0, 0, 0, 0, 0, 0, 0, 0, 0, 1, 6, 130
"/Users/assafscialom/Documents/justYouPartner.nosync/justyoupartner/components/trainer/trainerPage/trainerCalendarTab/TrainerAddEvent.js", "JavaScript", 26, 0, 0, 0, 0, 0, 0, 0, 0, 0, 2, 5, 33
"/Users/assafscialom/Documents/justYouPartner.nosync/justyoupartner/components/trainer/trainerPage/trainerCalendarTab/TrainerCalendar.js", "JavaScript", 770, 0, 0, 0, 0, 0, 0, 0, 0, 0, 124, 179, 1073
"/Users/assafscialom/Documents/justYouPartner.nosync/justyoupartner/components/trainer/trainerPage/trainerCalendarTab/TrainerCalendarPageStack.js", "JavaScript", 15, 0, 0, 0, 0, 0, 0, 0, 0, 0, 1, 4, 20
"/Users/assafscialom/Documents/justYouPartner.nosync/justyoupartner/components/trainer/trainerPage/trainerOrdersTab/ApprovedOrder.js", "JavaScript", 389, 0, 0, 0, 0, 0, 0, 0, 0, 0, 6, 35, 430
"/Users/assafscialom/Documents/justYouPartner.nosync/justyoupartner/components/trainer/trainerPage/trainerOrdersTab/Chat.js", "JavaScript", 485, 0, 0, 0, 0, 0, 0, 0, 0, 0, 49, 102, 636
"/Users/assafscialom/Documents/justYouPartner.nosync/justyoupartner/components/trainer/trainerPage/trainerOrdersTab/PendingApprovalOrder.js", "JavaScript", 615, 0, 0, 0, 0, 0, 0, 0, 0, 0, 33, 93, 741
"/Users/assafscialom/Documents/justYouPartner.nosync/justyoupartner/components/trainer/trainerPage/trainerOrdersTab/TrainerOrderPageStack.js", "JavaScript", 21, 0, 0, 0, 0, 0, 0, 0, 0, 0, 1, 5, 27
"/Users/assafscialom/Documents/justYouPartner.nosync/justyoupartner/components/trainer/trainerPage/trainerOrdersTab/TrainerOrdersPage.js", "JavaScript", 531, 0, 0, 0, 0, 0, 0, 0, 0, 0, 40, 71, 642
"/Users/assafscialom/Documents/justYouPartner.nosync/justyoupartner/components/trainer/trainerPage/trainerProfileTab/ChangeEmailAddres.js", "JavaScript", 390, 0, 0, 0, 0, 0, 0, 0, 0, 0, 97, 35, 522
"/Users/assafscialom/Documents/justYouPartner.nosync/justyoupartner/components/trainer/trainerPage/trainerProfileTab/ChangePhoneNumber.js", "JavaScript", 455, 0, 0, 0, 0, 0, 0, 0, 0, 0, 10, 32, 497
"/Users/assafscialom/Documents/justYouPartner.nosync/justyoupartner/components/trainer/trainerPage/trainerProfileTab/CustomerService.js", "JavaScript", 304, 0, 0, 0, 0, 0, 0, 0, 0, 0, 46, 38, 388
"/Users/assafscialom/Documents/justYouPartner.nosync/justyoupartner/components/trainer/trainerPage/trainerProfileTab/PrivacyPolicy.js", "JavaScript", 206, 0, 0, 0, 0, 0, 0, 0, 0, 0, 13, 93, 312
"/Users/assafscialom/Documents/justYouPartner.nosync/justyoupartner/components/trainer/trainerPage/trainerProfileTab/QuestionsAndAnswers.js", "JavaScript", 121, 0, 0, 0, 0, 0, 0, 0, 0, 0, 3, 9, 133
"/Users/assafscialom/Documents/justYouPartner.nosync/justyoupartner/components/trainer/trainerPage/trainerProfileTab/TermsConditions.js", "JavaScript", 218, 0, 0, 0, 0, 0, 0, 0, 0, 0, 3, 87, 308
"/Users/assafscialom/Documents/justYouPartner.nosync/justyoupartner/components/trainer/trainerPage/trainerProfileTab/TrainerAboutMeEditProfile.js", "JavaScript", 171, 0, 0, 0, 0, 0, 0, 0, 0, 0, 5, 21, 197
"/Users/assafscialom/Documents/justYouPartner.nosync/justyoupartner/components/trainer/trainerPage/trainerProfileTab/TrainerCertificationsEditProfile.js", "JavaScript", 172, 0, 0, 0, 0, 0, 0, 0, 0, 0, 5, 21, 198
"/Users/assafscialom/Documents/justYouPartner.nosync/justyoupartner/components/trainer/trainerPage/trainerProfileTab/TrainerEditAddress.js", "JavaScript", 297, 0, 0, 0, 0, 0, 0, 0, 0, 0, 9, 43, 349
"/Users/assafscialom/Documents/justYouPartner.nosync/justyoupartner/components/trainer/trainerPage/trainerProfileTab/TrainerEditMedia.js", "JavaScript", 582, 0, 0, 0, 0, 0, 0, 0, 0, 0, 32, 104, 718
"/Users/assafscialom/Documents/justYouPartner.nosync/justyoupartner/components/trainer/trainerPage/trainerProfileTab/TrainerEditProfile.js", "JavaScript", 1172, 0, 0, 0, 0, 0, 0, 0, 0, 0, 30, 63, 1265
"/Users/assafscialom/Documents/justYouPartner.nosync/justyoupartner/components/trainer/trainerPage/trainerProfileTab/TrainerPickCategoriesEditProfile.js", "JavaScript", 208, 0, 0, 0, 0, 0, 0, 0, 0, 0, 5, 19, 232
"/Users/assafscialom/Documents/justYouPartner.nosync/justyoupartner/components/trainer/trainerPage/trainerProfileTab/TrainerProfilePage.js", "JavaScript", 905, 0, 0, 0, 0, 0, 0, 0, 0, 0, 58, 93, 1056
"/Users/assafscialom/Documents/justYouPartner.nosync/justyoupartner/components/trainer/trainerPage/trainerProfileTab/TrainerProfilePageStack.js", "JavaScript", 47, 0, 0, 0, 0, 0, 0, 0, 0, 0, 1, 8, 56
"/Users/assafscialom/Documents/justYouPartner.nosync/justyoupartner/components/trainer/trainerPage/trainerProfileTab/TrainerReviews.js", "JavaScript", 270, 0, 0, 0, 0, 0, 0, 0, 0, 0, 12, 40, 322
"/Users/assafscialom/Documents/justYouPartner.nosync/justyoupartner/components/trainer/trainerPage/trainerProfileTab/TrainerSettings.js", "JavaScript", 311, 0, 0, 0, 0, 0, 0, 0, 0, 0, 4, 23, 338
"/Users/assafscialom/Documents/justYouPartner.nosync/justyoupartner/components/trainer/trainerPage/trainerProfileTab/Updates.js", "JavaScript", 82, 0, 0, 0, 0, 0, 0, 0, 0, 0, 2, 12, 96
"/Users/assafscialom/Documents/justYouPartner.nosync/justyoupartner/components/trainer/trainerPage/trainerProfileTab/WhyUs.js", "JavaScript", 120, 0, 0, 0, 0, 0, 0, 0, 0, 0, 1, 8, 129
"/Users/assafscialom/Documents/justYouPartner.nosync/justyoupartner/components/trainer/trainerPage/trainerStatsTab/StatsAndIncomes.js", "JavaScript", 705, 0, 0, 0, 0, 0, 0, 0, 0, 0, 102, 91, 898
"/Users/assafscialom/Documents/justYouPartner.nosync/justyoupartner/components/trainer/trainerPage/trainerStatsTab/TrainerStatsPageStack.js", "JavaScript", 15, 0, 0, 0, 0, 0, 0, 0, 0, 0, 1, 4, 20
"/Users/assafscialom/Documents/justYouPartner.nosync/justyoupartner/components/trainer/trainerRegister/AboutMeTrainer.js", "JavaScript", 173, 0, 0, 0, 0, 0, 0, 0, 0, 0, 5, 21, 199
"/Users/assafscialom/Documents/justYouPartner.nosync/justyoupartner/components/trainer/trainerRegister/AddPhotosTrainer.js", "JavaScript", 471, 0, 0, 0, 0, 0, 0, 0, 0, 0, 23, 45, 539
"/Users/assafscialom/Documents/justYouPartner.nosync/justyoupartner/components/trainer/trainerRegister/AddressTrainer.js", "JavaScript", 300, 0, 0, 0, 0, 0, 0, 0, 0, 0, 9, 43, 352
"/Users/assafscialom/Documents/justYouPartner.nosync/justyoupartner/components/trainer/trainerRegister/CertificationsTrainer.js", "JavaScript", 174, 0, 0, 0, 0, 0, 0, 0, 0, 0, 5, 21, 200
"/Users/assafscialom/Documents/justYouPartner.nosync/justyoupartner/components/trainer/trainerRegister/CreatePasswordTrainer.js", "JavaScript", 193, 0, 0, 0, 0, 0, 0, 0, 0, 0, 4, 9, 206
"/Users/assafscialom/Documents/justYouPartner.nosync/justyoupartner/components/trainer/trainerRegister/DonePopUpTrainer.js", "JavaScript", 230, 0, 0, 0, 0, 0, 0, 0, 0, 0, 52, 41, 323
"/Users/assafscialom/Documents/justYouPartner.nosync/justyoupartner/components/trainer/trainerRegister/EmailVerificationTrainer.js", "JavaScript", 221, 0, 0, 0, 0, 0, 0, 0, 0, 0, 32, 12, 265
"/Users/assafscialom/Documents/justYouPartner.nosync/justyoupartner/components/trainer/trainerRegister/ForgotPasswordTrainer.js", "JavaScript", 296, 0, 0, 0, 0, 0, 0, 0, 0, 0, 7, 19, 322
"/Users/assafscialom/Documents/justYouPartner.nosync/justyoupartner/components/trainer/trainerRegister/LogInTrainer.js", "JavaScript", 268, 0, 0, 0, 0, 0, 0, 0, 0, 0, 12, 33, 313
"/Users/assafscialom/Documents/justYouPartner.nosync/justyoupartner/components/trainer/trainerRegister/PaymentsAndPolicyTrainer.js", "JavaScript", 258, 0, 0, 0, 0, 0, 0, 0, 0, 0, 10, 15, 283
"/Users/assafscialom/Documents/justYouPartner.nosync/justyoupartner/components/trainer/trainerRegister/PaypalUsername.js", "JavaScript", 116, 0, 0, 0, 0, 0, 0, 0, 0, 0, 0, 10, 126
"/Users/assafscialom/Documents/justYouPartner.nosync/justyoupartner/components/trainer/trainerRegister/PhoneNumberVerificationTrainer.js", "JavaScript", 441, 0, 0, 0, 0, 0, 0, 0, 0, 0, 21, 30, 492
"/Users/assafscialom/Documents/justYouPartner.nosync/justyoupartner/components/trainer/trainerRegister/PickCategoryTrainer.js", "JavaScript", 205, 0, 0, 0, 0, 0, 0, 0, 0, 0, 10, 17, 232
"/Users/assafscialom/Documents/justYouPartner.nosync/justyoupartner/components/trainer/trainerRegister/ProfileDetailsPage1Trainer.js", "JavaScript", 388, 0, 0, 0, 0, 0, 0, 0, 0, 0, 35, 40, 463
"/Users/assafscialom/Documents/justYouPartner.nosync/justyoupartner/components/trainer/trainerRegister/ProfileDetailsPage2Trainer.js", "JavaScript", 1153, 0, 0, 0, 0, 0, 0, 0, 0, 0, 30, 55, 1238
"/Users/assafscialom/Documents/justYouPartner.nosync/justyoupartner/components/trainer/trainerRegister/ResetPasswordTrainer.js", "JavaScript", 166, 0, 0, 0, 0, 0, 0, 0, 0, 0, 4, 8, 178
"/Users/assafscialom/Documents/justYouPartner.nosync/justyoupartner/components/trainer/trainerRegister/SignUpTrainer.js", "JavaScript", 189, 0, 0, 0, 0, 0, 0, 0, 0, 0, 62, 12, 263
"/Users/assafscialom/Documents/justYouPartner.nosync/justyoupartner/components/trainer/trainerRegister/TermsConditionsTrainer.js", "JavaScript", 208, 0, 0, 0, 0, 0, 0, 0, 0, 0, 2, 84, 294
"/Users/assafscialom/Documents/justYouPartner.nosync/justyoupartner/components/trainer/trainerRegister/WelcomeTrainer.js", "JavaScript", 42, 0, 0, 0, 0, 0, 0, 0, 0, 0, 2, 5, 49
"/Users/assafscialom/Documents/justYouPartner.nosync/justyoupartner/context/GlobalStore.js", "JavaScript", 19, 0, 0, 0, 0, 0, 0, 0, 0, 0, 0, 3, 22
"/Users/assafscialom/Documents/justYouPartner.nosync/justyoupartner/context/SignAsTypeContext.js", "JavaScript", 12, 0, 0, 0, 0, 0, 0, 0, 0, 0, 0, 5, 17
"/Users/assafscialom/Documents/justYouPartner.nosync/justyoupartner/context/orderContexts/OrderContext.js", "JavaScript", 18, 0, 0, 0, 0, 0, 0, 0, 0, 0, 0, 5, 23
"/Users/assafscialom/Documents/justYouPartner.nosync/justyoupartner/context/placeContextes/AboutThePlaceContext.js", "JavaScript", 12, 0, 0, 0, 0, 0, 0, 0, 0, 0, 0, 5, 17
"/Users/assafscialom/Documents/justYouPartner.nosync/justyoupartner/context/placeContextes/AddressContext.js", "JavaScript", 12, 0, 0, 0, 0, 0, 0, 0, 0, 0, 0, 5, 17
"/Users/assafscialom/Documents/justYouPartner.nosync/justyoupartner/context/placeContextes/CategoryContext.js", "JavaScript", 12, 0, 0, 0, 0, 0, 0, 0, 0, 0, 0, 5, 17
"/Users/assafscialom/Documents/justYouPartner.nosync/justyoupartner/context/placeContextes/CompanyNameContext.js", "JavaScript", 12, 0, 0, 0, 0, 0, 0, 0, 0, 0, 0, 5, 17
"/Users/assafscialom/Documents/justYouPartner.nosync/justyoupartner/context/placeContextes/CompanyNumberContext.js", "JavaScript", 12, 0, 0, 0, 0, 0, 0, 0, 0, 0, 0, 5, 17
"/Users/assafscialom/Documents/justYouPartner.nosync/justyoupartner/context/placeContextes/CountryContext.js", "JavaScript", 12, 0, 0, 0, 0, 0, 0, 0, 0, 0, 0, 5, 17
"/Users/assafscialom/Documents/justYouPartner.nosync/justyoupartner/context/placeContextes/EmailContext.js", "JavaScript", 12, 0, 0, 0, 0, 0, 0, 0, 0, 0, 0, 5, 17
"/Users/assafscialom/Documents/justYouPartner.nosync/justyoupartner/context/placeContextes/MediaContext.js", "JavaScript", 12, 0, 0, 0, 0, 0, 0, 0, 0, 0, 0, 5, 17
"/Users/assafscialom/Documents/justYouPartner.nosync/justyoupartner/context/placeContextes/PasswordContext.js", "JavaScript", 12, 0, 0, 0, 0, 0, 0, 0, 0, 0, 0, 5, 17
"/Users/assafscialom/Documents/justYouPartner.nosync/justyoupartner/context/placeContextes/PhoneContext.js", "JavaScript", 13, 0, 0, 0, 0, 0, 0, 0, 0, 0, 0, 5, 18
"/Users/assafscialom/Documents/justYouPartner.nosync/justyoupartner/context/placeContextes/PlaceGlobalStore.js", "JavaScript", 43, 0, 0, 0, 0, 0, 0, 0, 0, 0, 0, 4, 47
"/Users/assafscialom/Documents/justYouPartner.nosync/justyoupartner/context/placeContextes/ProfileImageContext.js", "JavaScript", 12, 0, 0, 0, 0, 0, 0, 0, 0, 0, 0, 5, 17
"/Users/assafscialom/Documents/justYouPartner.nosync/justyoupartner/context/placeContextes/TrainingPriceContext.js", "JavaScript", 18, 0, 0, 0, 0, 0, 0, 0, 0, 0, 0, 5, 23
"/Users/assafscialom/Documents/justYouPartner.nosync/justyoupartner/context/trainerContextes/AboutMeContext.js", "JavaScript", 12, 0, 0, 0, 0, 0, 0, 0, 0, 0, 0, 5, 17
"/Users/assafscialom/Documents/justYouPartner.nosync/justyoupartner/context/trainerContextes/BirthdayContext.js", "JavaScript", 12, 0, 0, 0, 0, 0, 0, 0, 0, 0, 0, 5, 17
"/Users/assafscialom/Documents/justYouPartner.nosync/justyoupartner/context/trainerContextes/CalendarContext.js", "JavaScript", 12, 0, 0, 0, 0, 0, 0, 0, 0, 0, 0, 5, 17
"/Users/assafscialom/Documents/justYouPartner.nosync/justyoupartner/context/trainerContextes/CategoryContext.js", "JavaScript", 12, 0, 0, 0, 0, 0, 0, 0, 0, 0, 0, 5, 17
"/Users/assafscialom/Documents/justYouPartner.nosync/justyoupartner/context/trainerContextes/CertificationsContext.js", "JavaScript", 12, 0, 0, 0, 0, 0, 0, 0, 0, 0, 0, 5, 17
"/Users/assafscialom/Documents/justYouPartner.nosync/justyoupartner/context/trainerContextes/CountryContext.js", "JavaScript", 12, 0, 0, 0, 0, 0, 0, 0, 0, 0, 0, 5, 17
"/Users/assafscialom/Documents/justYouPartner.nosync/justyoupartner/context/trainerContextes/EmailContext.js", "JavaScript", 12, 0, 0, 0, 0, 0, 0, 0, 0, 0, 0, 5, 17
"/Users/assafscialom/Documents/justYouPartner.nosync/justyoupartner/context/trainerContextes/IdContext.js", "JavaScript", 12, 0, 0, 0, 0, 0, 0, 0, 0, 0, 0, 5, 17
"/Users/assafscialom/Documents/justYouPartner.nosync/justyoupartner/context/trainerContextes/MaximumDistanceContext.js", "JavaScript", 12, 0, 0, 0, 0, 0, 0, 0, 0, 0, 0, 5, 17
"/Users/assafscialom/Documents/justYouPartner.nosync/justyoupartner/context/trainerContextes/MediaContext.js", "JavaScript", 14, 0, 0, 0, 0, 0, 0, 0, 0, 0, 0, 8, 22
"/Users/assafscialom/Documents/justYouPartner.nosync/justyoupartner/context/trainerContextes/NameContext.js", "JavaScript", 13, 0, 0, 0, 0, 0, 0, 0, 0, 0, 0, 5, 18
"/Users/assafscialom/Documents/justYouPartner.nosync/justyoupartner/context/trainerContextes/PasswordContext.js", "JavaScript", 12, 0, 0, 0, 0, 0, 0, 0, 0, 0, 0, 5, 17
"/Users/assafscialom/Documents/justYouPartner.nosync/justyoupartner/context/trainerContextes/PaypalUsernameContext.js", "JavaScript", 12, 0, 0, 0, 0, 0, 0, 0, 0, 0, 0, 5, 17
"/Users/assafscialom/Documents/justYouPartner.nosync/justyoupartner/context/trainerContextes/PhoneContext.js", "JavaScript", 13, 0, 0, 0, 0, 0, 0, 0, 0, 0, 0, 5, 18
"/Users/assafscialom/Documents/justYouPartner.nosync/justyoupartner/context/trainerContextes/ReviewsContext.js", "JavaScript", 12, 0, 0, 0, 0, 0, 0, 0, 0, 0, 0, 4, 16
"/Users/assafscialom/Documents/justYouPartner.nosync/justyoupartner/context/trainerContextes/TrainerGlobalStore.js", "JavaScript", 58, 0, 0, 0, 0, 0, 0, 0, 0, 0, 0, 5, 63
"/Users/assafscialom/Documents/justYouPartner.nosync/justyoupartner/context/trainerContextes/TrainingPriceContext.js", "JavaScript", 20, 0, 0, 0, 0, 0, 0, 0, 0, 0, 0, 5, 25
"/Users/assafscialom/Documents/justYouPartner.nosync/justyoupartner/context/trainerContextes/TrainingSiteContext.js", "JavaScript", 15, 0, 0, 0, 0, 0, 0, 0, 0, 0, 0, 5, 20
"/Users/assafscialom/Documents/justYouPartner.nosync/justyoupartner/index.js", "JavaScript", 4, 0, 0, 0, 0, 0, 0, 0, 0, 0, 3, 3, 10
"/Users/assafscialom/Documents/justYouPartner.nosync/justyoupartner/ios/justyoutrainer/AppDelegate.h", "C++", 0, 0, 0, 0, 0, 0, 0, 0, 5, 0, 0, 4, 9
"/Users/assafscialom/Documents/justYouPartner.nosync/justyoupartner/ios/justyoutrainer/AppDelegate.m", "Objective-C", 0, 0, 0, 0, 0, 54, 0, 0, 0, 0, 2, 16, 72
"/Users/assafscialom/Documents/justYouPartner.nosync/justyoupartner/ios/justyoutrainer/Images.xcassets/AppIcon.appiconset/Contents.json", "JSON", 0, 0, 0, 0, 62, 0, 0, 0, 0, 0, 0, 1, 63
"/Users/assafscialom/Documents/justYouPartner.nosync/justyoupartner/ios/justyoutrainer/Images.xcassets/Contents.json", "JSON", 0, 0, 0, 0, 6, 0, 0, 0, 0, 0, 0, 1, 7
"/Users/assafscialom/Documents/justYouPartner.nosync/justyoupartner/ios/justyoutrainer/LaunchScreen.storyboard", "XML", 0, 0, 0, 0, 0, 0, 0, 57, 0, 0, 1, 1, 59
"/Users/assafscialom/Documents/justYouPartner.nosync/justyoupartner/ios/justyoutrainer/main.m", "Objective-C", 0, 0, 0, 0, 0, 7, 0, 0, 0, 0, 0, 3, 10
"/Users/assafscialom/Documents/justYouPartner.nosync/justyoupartner/ios/justyoutrainerTests/justyoutrainerTests.m", "Objective-C", 0, 0, 0, 0, 0, 51, 0, 0, 0, 0, 0, 15, 66
"/Users/assafscialom/Documents/justYouPartner.nosync/justyoupartner/metro.config.js", "JavaScript", 10, 0, 0, 0, 0, 0, 0, 0, 0, 0, 6, 2, 18
"/Users/assafscialom/Documents/justYouPartner.nosync/justyoupartner/package-lock.json", "JSON", 0, 0, 0, 0, 35244, 0, 0, 0, 0, 0, 0, 1, 35245
"/Users/assafscialom/Documents/justYouPartner.nosync/justyoupartner/package.json", "JSON", 0, 0, 0, 0, 89, 0, 0, 0, 0, 0, 0, 1, 90
"/Users/assafscialom/Documents/justYouPartner.nosync/justyoupartner/patches/react-native+0.66.5.patch", "Diff", 0, 0, 0, 0, 0, 0, 0, 0, 0, 13, 0, 1, 14
"/Users/assafscialom/Documents/justYouPartner.nosync/justyoupartner/permissionService.js", "JavaScript", 33, 0, 0, 0, 0, 0, 0, 0, 0, 0, 3, 2, 38
"/Users/assafscialom/Documents/justYouPartner.nosync/justyoupartner/reducers/SignUpAsReducer.js", "JavaScript", 9, 0, 0, 0, 0, 0, 0, 0, 0, 0, 0, 3, 12
"/Users/assafscialom/Documents/justYouPartner.nosync/justyoupartner/reducers/orderReducers/OrderReducer.js", "JavaScript", 13, 0, 0, 0, 0, 0, 0, 0, 0, 0, 0, 9, 22
"/Users/assafscialom/Documents/justYouPartner.nosync/justyoupartner/reducers/placeReducers/AboutThePlaceReducer.js", "JavaScript", 9, 0, 0, 0, 0, 0, 0, 0, 0, 0, 0, 3, 12
"/Users/assafscialom/Documents/justYouPartner.nosync/justyoupartner/reducers/placeReducers/AddressReducer.js", "JavaScript", 9, 0, 0, 0, 0, 0, 0, 0, 0, 0, 0, 3, 12
"/Users/assafscialom/Documents/justYouPartner.nosync/justyoupartner/reducers/placeReducers/CategoryReducer.js", "JavaScript", 9, 0, 0, 0, 0, 0, 0, 0, 0, 0, 0, 3, 12
"/Users/assafscialom/Documents/justYouPartner.nosync/justyoupartner/reducers/placeReducers/CompanyNameReducer.js", "JavaScript", 9, 0, 0, 0, 0, 0, 0, 0, 0, 0, 0, 3, 12
"/Users/assafscialom/Documents/justYouPartner.nosync/justyoupartner/reducers/placeReducers/CompanyNumberReducer.js", "JavaScript", 9, 0, 0, 0, 0, 0, 0, 0, 0, 0, 0, 3, 12
"/Users/assafscialom/Documents/justYouPartner.nosync/justyoupartner/reducers/placeReducers/CountryReducer.js", "JavaScript", 9, 0, 0, 0, 0, 0, 0, 0, 0, 0, 0, 3, 12
"/Users/assafscialom/Documents/justYouPartner.nosync/justyoupartner/reducers/placeReducers/EmailReducer.js", "JavaScript", 9, 0, 0, 0, 0, 0, 0, 0, 0, 0, 0, 3, 12
"/Users/assafscialom/Documents/justYouPartner.nosync/justyoupartner/reducers/placeReducers/MediaReducer.js", "JavaScript", 14, 0, 0, 0, 0, 0, 0, 0, 0, 0, 0, 4, 18
"/Users/assafscialom/Documents/justYouPartner.nosync/justyoupartner/reducers/placeReducers/PasswordReducer.js", "JavaScript", 9, 0, 0, 0, 0, 0, 0, 0, 0, 0, 0, 3, 12
"/Users/assafscialom/Documents/justYouPartner.nosync/justyoupartner/reducers/placeReducers/PhoneReducer.js", "JavaScript", 11, 0, 0, 0, 0, 0, 0, 0, 0, 0, 0, 4, 15
"/Users/assafscialom/Documents/justYouPartner.nosync/justyoupartner/reducers/placeReducers/ProfileImageReducer.js", "JavaScript", 9, 0, 0, 0, 0, 0, 0, 0, 0, 0, 0, 3, 12
"/Users/assafscialom/Documents/justYouPartner.nosync/justyoupartner/reducers/placeReducers/TrainingPriceReducer.js", "JavaScript", 11, 0, 0, 0, 0, 0, 0, 0, 0, 0, 0, 4, 15
"/Users/assafscialom/Documents/justYouPartner.nosync/justyoupartner/reducers/trainerReducers/AboutMeReducer.js", "JavaScript", 9, 0, 0, 0, 0, 0, 0, 0, 0, 0, 0, 3, 12
"/Users/assafscialom/Documents/justYouPartner.nosync/justyoupartner/reducers/trainerReducers/BirthdayReducer.js", "JavaScript", 9, 0, 0, 0, 0, 0, 0, 0, 0, 0, 0, 3, 12
"/Users/assafscialom/Documents/justYouPartner.nosync/justyoupartner/reducers/trainerReducers/CalendarReducer.js", "JavaScript", 9, 0, 0, 0, 0, 0, 0, 0, 0, 0, 0, 3, 12
"/Users/assafscialom/Documents/justYouPartner.nosync/justyoupartner/reducers/trainerReducers/CategoryReducer.js", "JavaScript", 9, 0, 0, 0, 0, 0, 0, 0, 0, 0, 0, 3, 12
"/Users/assafscialom/Documents/justYouPartner.nosync/justyoupartner/reducers/trainerReducers/CertificationsReducer.js", "JavaScript", 9, 0, 0, 0, 0, 0, 0, 0, 0, 0, 0, 3, 12
"/Users/assafscialom/Documents/justYouPartner.nosync/justyoupartner/reducers/trainerReducers/CountryReducer.js", "JavaScript", 9, 0, 0, 0, 0, 0, 0, 0, 0, 0, 0, 3, 12
"/Users/assafscialom/Documents/justYouPartner.nosync/justyoupartner/reducers/trainerReducers/EmailReducer.js", "JavaScript", 9, 0, 0, 0, 0, 0, 0, 0, 0, 0, 0, 3, 12
"/Users/assafscialom/Documents/justYouPartner.nosync/justyoupartner/reducers/trainerReducers/IdReducer.js", "JavaScript", 9, 0, 0, 0, 0, 0, 0, 0, 0, 0, 0, 3, 12
"/Users/assafscialom/Documents/justYouPartner.nosync/justyoupartner/reducers/trainerReducers/MaximumDistnaceReducer.js", "JavaScript", 9, 0, 0, 0, 0, 0, 0, 0, 0, 0, 0, 3, 12
"/Users/assafscialom/Documents/justYouPartner.nosync/justyoupartner/reducers/trainerReducers/MediaReducer.js", "JavaScript", 13, 0, 0, 0, 0, 0, 0, 0, 0, 0, 0, 5, 18
"/Users/assafscialom/Documents/justYouPartner.nosync/justyoupartner/reducers/trainerReducers/NameReducer.js", "JavaScript", 11, 0, 0, 0, 0, 0, 0, 0, 0, 0, 0, 4, 15
"/Users/assafscialom/Documents/justYouPartner.nosync/justyoupartner/reducers/trainerReducers/PasswordReducer.js", "JavaScript", 9, 0, 0, 0, 0, 0, 0, 0, 0, 0, 0, 3, 12
"/Users/assafscialom/Documents/justYouPartner.nosync/justyoupartner/reducers/trainerReducers/PaypalUsernameReducer.js", "JavaScript", 9, 0, 0, 0, 0, 0, 0, 0, 0, 0, 0, 3, 12
"/Users/assafscialom/Documents/justYouPartner.nosync/justyoupartner/reducers/trainerReducers/PhoneReducer.js", "JavaScript", 11, 0, 0, 0, 0, 0, 0, 0, 0, 0, 0, 4, 15
"/Users/assafscialom/Documents/justYouPartner.nosync/justyoupartner/reducers/trainerReducers/ReviewsReducer.js", "JavaScript", 9, 0, 0, 0, 0, 0, 0, 0, 0, 0, 0, 3, 12
"/Users/assafscialom/Documents/justYouPartner.nosync/justyoupartner/reducers/trainerReducers/TrainingPriceReducer.js", "JavaScript", 15, 0, 0, 0, 0, 0, 0, 0, 0, 0, 0, 6, 21
"/Users/assafscialom/Documents/justYouPartner.nosync/justyoupartner/reducers/trainerReducers/TrainingSiteReducer.js", "JavaScript", 15, 0, 0, 0, 0, 0, 0, 0, 0, 0, 0, 8, 23
"Total", "-", 20191, 142, 76, 9, 63322, 112, 129, 152, 5, 13, 1463, 2631, 88245